{
  "project_info": {
    "project_number": "185841920864",
    "firebase_url": "https://rps-application.firebaseio.com",
    "project_id": "rps-application",
    "storage_bucket": "rps-application.appspot.com"
  },
  "client": [
    {
      "client_info": {
        "mobilesdk_app_id": "1:185841920864:android:f1c83f3b346b313b",
        "android_client_info": {
          "package_name": "rps.com.evgeny.rps"
        }
      },
      "oauth_client": [
        {
          "client_id": "185841920864-kbc7fpt642oam4q9s3j0nsdr8m50nonq.apps.googleusercontent.com",
          "client_type": 1,
          "android_info": {
            "package_name": "rps.com.evgeny.rps",
            "certificate_hash": "07b7bf29294855e3a35c24c2f9c6479cb1d80305"
          }
        },
        {
          "client_id": "185841920864-hhtptqafjvfj6k0q0s1g04738tdo7ldm.apps.googleusercontent.com",
          "client_type": 3
        }
      ],
      "api_key": [
        {
          "current_key": "AIzaSyBFiCVbvf3oafaiNxVsFPgccsZKTgXuDLY"
        }
      ],
      "services": {
        "analytics_service": {
          "status": 1
        },
        "appinvite_service": {
          "status": 2,
          "other_platform_oauth_client": [
            {
              "client_id": "185841920864-hhtptqafjvfj6k0q0s1g04738tdo7ldm.apps.googleusercontent.com",
              "client_type": 3
            }
          ]
        },
        "ads_service": {
          "status": 2
        }
      }
    }
  ],
  "configuration_version": "1"
}